test for class
…
1.02

7.55

2009-01-06

1.148

-3.73

-0.39

gather(stocks, stock, price, -time)
#> # A tibble: 30 x 3
#>    time       stock    price
#>    <date>     <chr>    <dbl>
#>  1 2009-01-01 X     -1.40   
#>  2 2009-01-02 X      0.255  
#>  3 2009-01-03 X     -2.44   
#>  4 2009-01-04 X     -0.00557
#>  5 2009-01-05 X      0.622  
#>  6 2009-01-06 X      1.15   
#>  7 2009-01-07 X     -1.82   
#>  8 2009-01-08 X     -0.247  
#>  9 2009-01-09 X     -0.244  
#> 10 2009-01-10 X     -0.283  
#> # ... with 20 more rows
stocks %>% gather(stock, price, -time)
#> # A tibble: 30 x 3
#>    time       stock    price
#>    <date>     <chr>    <dbl>
#>  1 2009-01-01 X     -1.40   
#>  2 2009-01-02 X      0.255  
#>  3 2009-01-03 X     -2.44   
#>  4 2009-01-04 X     -0.00557
#>  5 2009-01-05 X      0.622  
#>  6 2009-01-06 X      1.15   
#>  7 2009-01-07 X     -1.82   
#>  8 2009-01-08 X     -0.247  
#>  9 2009-01-09 X     -0.244  
#> 10 2009-01-10 X     -0.283  
#> # ... with 20 more rows
…
Percentile
The nth percentile of an observation variable is the value that cuts off the first n percent of the data values when it is sorted in ascending order.

Problem
Find the 32nd, 57th and 98th percentiles of runiform(200).

data<-runif(200) 
quantile(data, c(.32, .57, .98)) 

9.3 other

library(babynames)
babynames
#> # A tibble: 1,858,689 x 5
#>     year sex   name          n   prop
#>    <dbl> <chr> <chr>     <int>  <dbl>
#>  1  1880 F     Mary       7065 0.0724
#>  2  1880 F     Anna       2604 0.0267
#>  3  1880 F     Emma       2003 0.0205
#>  4  1880 F     Elizabeth  1939 0.0199
#>  5  1880 F     Minnie     1746 0.0179
#>  6  1880 F     Margaret   1578 0.0162
#>  7  1880 F     Ida        1472 0.0151
#>  8  1880 F     Alice      1414 0.0145
#>  9  1880 F     Bertha     1320 0.0135
#> 10  1880 F     Sarah      1288 0.0132
#> # ... with 1,858,679 more rows

9.3.1 Basic verbs

babynames %>% select(-prop)
#> # A tibble: 1,858,689 x 4
#>     year sex   name          n
#>    <dbl> <chr> <chr>     <int>
#>  1  1880 F     Mary       7065
#>  2  1880 F     Anna       2604
#>  3  1880 F     Emma       2003
#>  4  1880 F     Elizabeth  1939
#>  5  1880 F     Minnie     1746
#>  6  1880 F     Margaret   1578
#>  7  1880 F     Ida        1472
#>  8  1880 F     Alice      1414
#>  9  1880 F     Bertha     1320
#> 10  1880 F     Sarah      1288
#> # ... with 1,858,679 more rows
babynames %>% select(year:n)
#> # A tibble: 1,858,689 x 4
#>     year sex   name          n
#>    <dbl> <chr> <chr>     <int>
#>  1  1880 F     Mary       7065
#>  2  1880 F     Anna       2604
#>  3  1880 F     Emma       2003
#>  4  1880 F     Elizabeth  1939
#>  5  1880 F     Minnie     1746
#>  6  1880 F     Margaret   1578
#>  7  1880 F     Ida        1472
#>  8  1880 F     Alice      1414
#>  9  1880 F     Bertha     1320
#> 10  1880 F     Sarah      1288
#> # ... with 1,858,679 more rows
# starts_with(), ends_with(), contains()

babynames %>% filter(name == "Hadley")
#> # A tibble: 159 x 5
#>     year sex   name       n      prop
#>    <dbl> <chr> <chr>  <int>     <dbl>
#>  1  1906 M     Hadley     6 0.0000416
#>  2  1908 M     Hadley    16 0.0000962
#>  3  1909 M     Hadley    14 0.0000792
#>  4  1910 M     Hadley     5 0.0000240
#>  5  1911 M     Hadley     9 0.0000373
#>  6  1912 M     Hadley    11 0.0000244
#>  7  1913 M     Hadley    10 0.0000186
#>  8  1914 M     Hadley    15 0.0000220
#>  9  1915 M     Hadley    14 0.0000159
#> 10  1916 M     Hadley    14 0.0000152
#> # ... with 149 more rows
babynames %>% filter(year == 1900, sex == "F")
#> # A tibble: 2,225 x 5
#>     year sex   name          n   prop
#>    <dbl> <chr> <chr>     <int>  <dbl>
#>  1  1900 F     Mary      16707 0.0526
#>  2  1900 F     Helen      6343 0.0200
#>  3  1900 F     Anna       6114 0.0192
#>  4  1900 F     Margaret   5304 0.0167
#>  5  1900 F     Ruth       4765 0.0150
#>  6  1900 F     Elizabeth  4096 0.0129
#>  7  1900 F     Florence   3920 0.0123
#>  8  1900 F     Ethel      3896 0.0123
#>  9  1900 F     Marie      3856 0.0121
#> 10  1900 F     Lillian    3414 0.0107
#> # ... with 2,215 more rows
babynames %>% filter(year == 2013, sex == "F")
#> # A tibble: 19,203 x 5
#>     year sex   name          n    prop
#>    <dbl> <chr> <chr>     <int>   <dbl>
#>  1  2013 F     Sophia    21171 0.0110 
#>  2  2013 F     Emma      20905 0.0109 
#>  3  2013 F     Olivia    18397 0.00958
#>  4  2013 F     Isabella  17599 0.00916
#>  5  2013 F     Ava       15225 0.00793
#>  6  2013 F     Mia       13127 0.00683
#>  7  2013 F     Emily     13107 0.00682
#>  8  2013 F     Abigail   12387 0.00645
#>  9  2013 F     Madison   10575 0.00551
#> 10  2013 F     Elizabeth  9431 0.00491
#> # ... with 19,193 more rows

babynames %>%
  mutate(
    first = tolower(substr(name, 1, 1)),
    last = substr(name, nchar(name), nchar(name))
  )
#> Warning: The `printer` argument is soft-deprecated as of rlang 0.3.0.
#> This warning is displayed once per session.
#> # A tibble: 1,858,689 x 7
#>     year sex   name          n   prop first last 
#>    <dbl> <chr> <chr>     <int>  <dbl> <chr> <chr>
#>  1  1880 F     Mary       7065 0.0724 m     y    
#>  2  1880 F     Anna       2604 0.0267 a     a    
#>  3  1880 F     Emma       2003 0.0205 e     a    
#>  4  1880 F     Elizabeth  1939 0.0199 e     h    
#>  5  1880 F     Minnie     1746 0.0179 m     e    
#>  6  1880 F     Margaret   1578 0.0162 m     t    
#>  7  1880 F     Ida        1472 0.0151 i     a    
#>  8  1880 F     Alice      1414 0.0145 a     e    
#>  9  1880 F     Bertha     1320 0.0135 b     a    
#> 10  1880 F     Sarah      1288 0.0132 s     h    
#> # ... with 1,858,679 more rows

babynames %>%
  arrange(desc(prop))
#> # A tibble: 1,858,689 x 5
#>     year sex   name        n   prop
#>    <dbl> <chr> <chr>   <int>  <dbl>
#>  1  1880 M     John     9655 0.0815
#>  2  1881 M     John     8769 0.0810
#>  3  1880 M     William  9531 0.0805
#>  4  1883 M     John     8894 0.0791
#>  5  1881 M     William  8524 0.0787
#>  6  1882 M     John     9557 0.0783
#>  7  1884 M     John     9388 0.0765
#>  8  1882 M     William  9298 0.0762
#>  9  1886 M     John     9026 0.0758
#> 10  1885 M     John     8756 0.0755
#> # ... with 1,858,679 more rows
…
問題:
1. 如何知道min-rank(value)中的value 是全局或是欄位?
hint: rm(value)
2. 會出現甚麼結果

df %>%
group_by(sex) %>%str()

nb <-babynames %>%
  group_by(name)

babynames %>%
  group_by(name) %>%
  summarise(n = sum(n))
#> # A tibble: 95,025 x 2
#>    name          n
#>    <chr>     <int>
#>  1 Aaban        87
#>  2 Aabha        28
#>  3 Aabid         5
#>  4 Aabriella    15
#>  5 Aada          5
#>  6 Aadam       218
#>  7 Aadan       122
#>  8 Aadarsh     173
#>  9 Aaden      4218
#> 10 Aadesh       15
#> # ... with 95,015 more rows
…
