Test
…
1.056481

-1.827024

2009-01-06

0.4692377

-2.880060

1.383232

gather(stocks, stock, price, -time)

## # A tibble: 30 x 3
##    time       stock   price
##    <date>     <chr>   <dbl>
##  1 2009-01-01 X     -0.992 
##  2 2009-01-02 X      1.13  
##  3 2009-01-03 X      0.0486
##  4 2009-01-04 X     -1.07  
##  5 2009-01-05 X      0.573 
##  6 2009-01-06 X      0.469 
##  7 2009-01-07 X     -0.135 
##  8 2009-01-08 X     -1.18  
##  9 2009-01-09 X      0.438 
## 10 2009-01-10 X     -0.463 
## # ... with 20 more rows

stocks %>% gather(stock, price, -time)

## # A tibble: 30 x 3
##    time       stock   price
##    <date>     <chr>   <dbl>
##  1 2009-01-01 X     -0.992 
##  2 2009-01-02 X      1.13  
##  3 2009-01-03 X      0.0486
##  4 2009-01-04 X     -1.07  
##  5 2009-01-05 X      0.573 
##  6 2009-01-06 X      0.469 
##  7 2009-01-07 X     -0.135 
##  8 2009-01-08 X     -1.18  
##  9 2009-01-09 X      0.438 
## 10 2009-01-10 X     -0.463 
## # ... with 20 more rows
…
